{
    "LastUpdate": "2022-05-18 02:27:51",
    "Total": 21,
    "Language": "en-IN",
    "message": "ok",
    "status": true,
    "success": true,
    "data": [
        {
            "startdate": "20220517",
            "fullstartdate": "202205171830",
            "enddate": "20220518",
            "url": "/th?id=OHR.KansasPrairiefire_EN-IN6795178497_1920x1080.jpg&rf=LaDigue_1920x1080.jpg&pid=hp",
            "urlbase": "/th?id=OHR.KansasPrairiefire_EN-IN6795178497",
            "copyright": "Museum at Prairiefire, Overland Park, Kansas (© Bernard P. Friel/Universal Images Group via Getty Images)",
            "copyrightlink": "https://www.bing.com/search?q=Museum+at+Prairiefire+Kansas&form=hpcapt&filters=HpDate%3a%2220220517_1830%22",
            "title": "This museum sets the prairie on fire",
            "quiz": "/search?q=Bing+homepage+quiz&filters=WQOskey:%22HPQuiz_20220517_KansasPrairiefire%22&FORM=HPQUIZ",
            "wp": false,
            "hsh": "ca133b966cc608434acf596931f38938",
            "drk": 1,
            "top": 1,
            "bot": 1,
            "hs": []
        },
        {
            "startdate": "20220516",
            "fullstartdate": "202205161830",
            "enddate": "20220517",
            "url": "/th?id=OHR.SaltPondsMaras_EN-IN6340913672_1920x1080.jpg&rf=LaDigue_1920x1080.jpg&pid=hp",
            "urlbase": "/th?id=OHR.SaltPondsMaras_EN-IN6340913672",
            "copyright": "Salt ponds of Maras in Peru's Sacred Valley of the Incas (© Fotofeeling/Westend61 on Offset/Shutterstock)",
            "copyrightlink": "https://www.bing.com/search?q=maras+peru&form=hpcapt&filters=HpDate%3a%2220220516_1830%22",
            "title": "Incan ingenuity",
            "quiz": "/search?q=Bing+homepage+quiz&filters=WQOskey:%22HPQuiz_20220516_SaltPondsMaras%22&FORM=HPQUIZ",
            "wp": true,
            "hsh": "945bb57b4c712d292994bc91dabd7977",
            "drk": 1,
            "top": 1,
            "bot": 1,
            "hs": []
        },
        {
            "startdate": "20220515",
            "fullstartdate": "202205151830",
            "enddate": "20220516",
            "url": "/th?id=OHR.MahabodhiTempleIndia_EN-IN6354793486_1920x1080.jpg&rf=LaDigue_1920x1080.jpg&pid=hp",
            "urlbase": "/th?id=OHR.MahabodhiTempleIndia_EN-IN6354793486",
            "copyright": "Mahabodhi Temple in Bihar, India (© Alamy)",
            "copyrightlink": "https://www.bing.com/search?q=Mahabodhi+Temple&form=hpcapt&filters=HpDate%3a%2220220515_1830%22",
            "title": "A place where Buddha attained enlightenment",
            "quiz": "/search?q=Bing+homepage+quiz&filters=WQOskey:%22HPQuiz_20220515_MahabodhiTempleIndia%22&FORM=HPQUIZ",
            "wp": true,
            "hsh": "e88f1ff78d6cff06cb880be0833cc69c",
            "drk": 1,
            "top": 1,
            "bot": 1,
            "hs": []
        },
        {
            "startdate": "20220514",
            "fullstartdate": "202205141830",
            "enddate": "20220515",
            "url": "/th?id=OHR.BerninaBloodMoon_EN-IN5529433004_1920x1080.jpg&rf=LaDigue_1920x1080.jpg&pid=hp",
            "urlbase": "/th?id=OHR.BerninaBloodMoon_EN-IN5529433004",
            "copyright": "Panoramic view of the Bernina Range with blood moon, Eastern Alps, Engadin, Switzerland (© Bernd Zoller/Shutterstock)",
            "copyrightlink": "https://www.bing.com/search?q=Total+lunar+eclipse&form=hpcapt&filters=HpDate%3a%2220220514_1830%22",
            "title": "Get ready for the blood moon",
            "quiz": "/search?q=Bing+homepage+quiz&filters=WQOskey:%22HPQuiz_20220514_BerninaBloodMoon%22&FORM=HPQUIZ",
            "wp": true,
            "hsh": "dbcbe5a6b5816ea7b0dafc64cb3a69bb",
            "drk": 1,
            "top": 1,
            "bot": 1,
            "hs": []
        },
        {
            "startdate": "20220513",
            "fullstartdate": "202205131830",
            "enddate": "20220514",
            "url": "/th?id=OHR.WindmillDay_EN-IN4806716529_1920x1080.jpg&rf=LaDigue_1920x1080.jpg&pid=hp",
            "urlbase": "/th?id=OHR.WindmillDay_EN-IN4806716529",
            "copyright": "Windmills, Kinderdijk, Netherlands (© Achim Thomae/Getty Images)",
            "copyrightlink": "https://www.bing.com/search?q=kinderdijk+windmills+netherlands&form=hpcapt&filters=HpDate%3a%2220220513_1830%22",
            "title": "Trusty water-shifters",
            "quiz": "/search?q=Bing+homepage+quiz&filters=WQOskey:%22HPQuiz_20220513_WindmillDay%22&FORM=HPQUIZ",
            "wp": true,
            "hsh": "8f75c235327d54e10de90e941048c6f2",
            "drk": 1,
            "top": 1,
            "bot": 1,
            "hs": []
        },
        {
            "startdate": "20220512",
            "fullstartdate": "202205121830",
            "enddate": "20220513",
            "url": "/th?id=OHR.MaasaiGiraffe_EN-IN4369685509_1920x1080.jpg&rf=LaDigue_1920x1080.jpg&pid=hp",
            "urlbase": "/th?id=OHR.MaasaiGiraffe_EN-IN4369685509",
            "copyright": "Masai giraffe in Maasai Mara, Kenya (© Andy Rouse/Minden Pictures)",
            "copyrightlink": "https://www.bing.com/search?q=masai+giraffe+subspecies&form=hpcapt&filters=HpDate%3a%2220220512_1830%22",
            "title": "Solo on the savannah",
            "quiz": "/search?q=Bing+homepage+quiz&filters=WQOskey:%22HPQuiz_20220512_MaasaiGiraffe%22&FORM=HPQUIZ",
            "wp": true,
            "hsh": "a7148b83fa15979d6191867fc8da25d9",
            "drk": 1,
            "top": 1,
            "bot": 1,
            "hs": []
        },
        {
            "startdate": "20220511",
            "fullstartdate": "202205111830",
            "enddate": "20220512",
            "url": "/th?id=OHR.RedCross_EN-IN2354180972_1920x1080.jpg&rf=LaDigue_1920x1080.jpg&pid=hp",
            "urlbase": "/th?id=OHR.RedCross_EN-IN2354180972",
            "copyright": "Nurses serving with the American Red Cross in Paris, France, in May 1919 (© Universal History Archive/Universal Images Group via Getty Images)",
            "copyrightlink": "https://www.bing.com/search?q=international+nurses+day&form=hpcapt&filters=HpDate%3a%2220220511_1830%22",
            "title": "American Red Cross pioneers",
            "quiz": "/search?q=Bing+homepage+quiz&filters=WQOskey:%22HPQuiz_20220511_RedCross%22&FORM=HPQUIZ",
            "wp": false,
            "hsh": "1c23e3719e5977b8f8f9dd07a8bf5d5e",
            "drk": 1,
            "top": 1,
            "bot": 1,
            "hs": []
        },
        {
            "startdate": "20220510",
            "fullstartdate": "202205101830",
            "enddate": "20220511",
            "url": "/th?id=OHR.OiaVillage_EN-IN1858544024_1920x1080.jpg&rf=LaDigue_1920x1080.jpg&pid=hp",
            "urlbase": "/th?id=OHR.OiaVillage_EN-IN1858544024",
            "copyright": "The village of Oia on the island of Santorini, Greece (© Zebra-Studio/Shutterstock)",
            "copyrightlink": "https://www.bing.com/search?q=santorini+island+thira+greece&form=hpcapt&filters=HpDate%3a%2220220510_1830%22",
            "title": "The ancient home of the Minoans",
            "quiz": "/search?q=Bing+homepage+quiz&filters=WQOskey:%22HPQuiz_20220510_OiaVillage%22&FORM=HPQUIZ",
            "wp": true,
            "hsh": "eff9a380268b10469e9f005ca28e31f1",
            "drk": 1,
            "top": 1,
            "bot": 1,
            "hs": []
        },
        {
            "startdate": "20220509",
            "fullstartdate": "202205091830",
            "enddate": "20220510",
            "url": "/th?id=OHR.GiffordPinchot_EN-IN6576123216_1920x1080.jpg&rf=LaDigue_1920x1080.jpg&pid=hp",
            "urlbase": "/th?id=OHR.GiffordPinchot_EN-IN6576123216",
            "copyright": "Panther Creek Falls in spring, Gifford Pinchot National Forest, Washington (© Stephen Matera/Tandem Stills + Motion)",
            "copyrightlink": "https://www.bing.com/search?q=gifford+pinchot+national+forest+united+states+washington&form=hpcapt&filters=HpDate%3a%2220220509_1830%22",
            "title": "A large forest with 6,000 of years of history",
            "quiz": "/search?q=Bing+homepage+quiz&filters=WQOskey:%22HPQuiz_20220509_GiffordPinchot%22&FORM=HPQUIZ",
            "wp": true,
            "hsh": "c19b1a807d78f82dfc43d203b75bc8cc",
            "drk": 1,
            "top": 1,
            "bot": 1,
            "hs": []
        },
        {
            "startdate": "20220508",
            "fullstartdate": "202205081830",
            "enddate": "20220509",
            "url": "/th?id=OHR.JaisalmerFort_EN-IN6142628819_1920x1080.jpg&rf=LaDigue_1920x1080.jpg&pid=hp",
            "urlbase": "/th?id=OHR.JaisalmerFort_EN-IN6142628819",
            "copyright": "Jaisalmer Fort in sunset light in Rajasthan, India (© Getty Images)",
            "copyrightlink": "https://www.bing.com/search?q=Jaisalmer+Fort&form=hpcapt&filters=HpDate%3a%2220220508_1830%22",
            "title": "The last living fort in India",
            "quiz": "/search?q=Bing+homepage+quiz&filters=WQOskey:%22HPQuiz_20220508_JaisalmerFort%22&FORM=HPQUIZ",
            "wp": true,
            "hsh": "18ed746a196b14c27d88fae0e8a54034",
            "drk": 1,
            "top": 1,
            "bot": 1,
            "hs": []
        },
        {
            "startdate": "20220507",
            "fullstartdate": "202205071830",
            "enddate": "20220508",
            "url": "/th?id=OHR.MomJoey_EN-IN5604117367_1920x1080.jpg&rf=LaDigue_1920x1080.jpg&pid=hp",
            "urlbase": "/th?id=OHR.MomJoey_EN-IN5604117367",
            "copyright": "Koala mother and 8-month-old joey, Queensland, Australia (© Suzi Eszterhas/Minden Pictures)",
            "copyrightlink": "https://www.bing.com/search?q=mother%27s+day&form=hpcapt&filters=HpDate%3a%2220220507_1830%22",
            "title": "For Mother’s Day, we salute these marsupial moms",
            "quiz": "/search?q=Bing+homepage+quiz&filters=WQOskey:%22HPQuiz_20220507_MomJoey%22&FORM=HPQUIZ",
            "wp": true,
            "hsh": "0d128e42aae5bddbbbe09004ff634320",
            "drk": 1,
            "top": 1,
            "bot": 1,
            "hs": []
        },
        {
            "startdate": "20220506",
            "fullstartdate": "202205061830",
            "enddate": "20220507",
            "url": "/th?id=OHR.SwedishAntenna_EN-IN4771356380_1920x1080.jpg&rf=LaDigue_1920x1080.jpg&pid=hp",
            "urlbase": "/th?id=OHR.SwedishAntenna_EN-IN4771356380",
            "copyright": "Swedish antenna at La Silla ESO Observatory, Chile (© Alberto Ghizzi Panizza/Getty Images)",
            "copyrightlink": "https://www.bing.com/search?q=astronomy+day&form=hpcapt&filters=HpDate%3a%2220220506_1830%22",
            "title": "Eyes on the skies",
            "quiz": "/search?q=Bing+homepage+quiz&filters=WQOskey:%22HPQuiz_20220506_SwedishAntenna%22&FORM=HPQUIZ",
            "wp": true,
            "hsh": "a5b3395107aafe47d0d361440dd1a0ab",
            "drk": 1,
            "top": 1,
            "bot": 1,
            "hs": []
        },
        {
            "startdate": "20220505",
            "fullstartdate": "202205051830",
            "enddate": "20220506",
            "url": "/th?id=OHR.HertfordshireBluebells_EN-IN5252712174_1920x1080.jpg&rf=LaDigue_1920x1080.jpg&pid=hp",
            "urlbase": "/th?id=OHR.HertfordshireBluebells_EN-IN5252712174",
            "copyright": "A path winding through a forest of bluebells in Hertfordshire, England (© JayKay57/Getty Images)",
            "copyrightlink": "https://www.bing.com/search?q=bluebell+plant&form=hpcapt&filters=HpDate%3a%2220220505_1830%22",
            "title": "Dare to tread through the fairy flower?",
            "quiz": "/search?q=Bing+homepage+quiz&filters=WQOskey:%22HPQuiz_20220505_HertfordshireBluebells%22&FORM=HPQUIZ",
            "wp": true,
            "hsh": "0cb8961b123044f49c462cdd8d0b4bb7",
            "drk": 1,
            "top": 1,
            "bot": 1,
            "hs": []
        },
        {
            "startdate": "20220504",
            "fullstartdate": "202205041830",
            "enddate": "20220505",
            "url": "/th?id=OHR.JaliscoAgave_EN-IN1869173257_1920x1080.jpg&rf=LaDigue_1920x1080.jpg&pid=hp",
            "urlbase": "/th?id=OHR.JaliscoAgave_EN-IN1869173257",
            "copyright": "Tree in blue agave field in the tequila producing region near Atotonilco, Jalisco, Mexico (© Brian Overcast/Alamy)",
            "copyrightlink": "https://www.bing.com/search?q=Blue+agave+Jalisco+Mexico&form=hpcapt&filters=HpDate%3a%2220220504_1830%22",
            "title": "This blue succulent is as good as gold here",
            "quiz": "/search?q=Bing+homepage+quiz&filters=WQOskey:%22HPQuiz_20220504_JaliscoAgave%22&FORM=HPQUIZ",
            "wp": true,
            "hsh": "f3049f719f9751b4556c7f3c3d8cb049",
            "drk": 1,
            "top": 1,
            "bot": 1,
            "hs": []
        },
        {
            "startdate": "20220503",
            "fullstartdate": "202205031830",
            "enddate": "20220504",
            "url": "/th?id=OHR.WadiRum_EN-IN1433063472_1920x1080.jpg&rf=LaDigue_1920x1080.jpg&pid=hp",
            "urlbase": "/th?id=OHR.WadiRum_EN-IN1433063472",
            "copyright": "Wadi Rum, Jordan (© Thomas Coex/AFP via Getty Images)",
            "copyrightlink": "https://www.bing.com/search?q=star+wars+day&form=hpcapt&filters=HpDate%3a%2220220503_1830%22",
            "title": "The sun sets on the Valley of the Moon",
            "quiz": "/search?q=Bing+homepage+quiz&filters=WQOskey:%22HPQuiz_20220503_WadiRum%22&FORM=HPQUIZ",
            "wp": false,
            "hsh": "1ff1bd45913f85cce9d7162e9507c718",
            "drk": 1,
            "top": 1,
            "bot": 1,
            "hs": []
        },
        {
            "startdate": "20220502",
            "fullstartdate": "202205021830",
            "enddate": "20220503",
            "url": "/th?id=OHR.DuckHen_EN-IN0949223991_1920x1080.jpg&rf=LaDigue_1920x1080.jpg&pid=hp",
            "urlbase": "/th?id=OHR.DuckHen_EN-IN0949223991",
            "copyright": "Mandarin duck hen with ducklings in South Korea (© VDCM image/Getty Images)",
            "copyrightlink": "https://www.bing.com/search?q=teacher+appreciation+week&form=hpcapt&filters=HpDate%3a%2220220502_1830%22",
            "title": "This lesson is going swimmingly",
            "quiz": "/search?q=Bing+homepage+quiz&filters=WQOskey:%22HPQuiz_20220502_DuckHen%22&FORM=HPQUIZ",
            "wp": true,
            "hsh": "011a7dc0d48611297d978511b31eb3c3",
            "drk": 1,
            "top": 1,
            "bot": 1,
            "hs": []
        },
        {
            "startdate": "20220501",
            "fullstartdate": "202205011830",
            "enddate": "20220502",
            "url": "/th?id=OHR.TajMahalSky_EN-IN2591010322_1920x1080.jpg&rf=LaDigue_1920x1080.jpg&pid=hp",
            "urlbase": "/th?id=OHR.TajMahalSky_EN-IN2591010322",
            "copyright": "Taj Mahal with Milky Way in the background in Agra, India (© Getty Images)",
            "copyrightlink": "https://www.bing.com/search?q=Eid+al-Fitr&form=hpcapt&filters=HpDate%3a%2220220501_1830%22",
            "title": "The festival of breaking the fast",
            "quiz": "/search?q=Bing+homepage+quiz&filters=WQOskey:%22HPQuiz_20220501_TajMahalSky%22&FORM=HPQUIZ",
            "wp": true,
            "hsh": "8e5d6c2b70e2d64acad492c5f33724a3",
            "drk": 1,
            "top": 1,
            "bot": 1,
            "hs": []
        },
        {
            "startdate": "20220430",
            "fullstartdate": "202204301830",
            "enddate": "20220501",
            "url": "/th?id=OHR.FoxSkills_EN-IN2855762577_1920x1080.jpg&rf=LaDigue_1920x1080.jpg&pid=hp",
            "urlbase": "/th?id=OHR.FoxSkills_EN-IN2855762577",
            "copyright": "Fox kits practice their hunting skills, Quebec, Canada (© Vlad Kamenski/Shutterstock)",
            "copyrightlink": "https://www.bing.com/search?q=red+fox+animal&form=hpcapt&filters=HpDate%3a%2220220430_1830%22",
            "title": "Keep practicing, little guy",
            "quiz": "/search?q=Bing+homepage+quiz&filters=WQOskey:%22HPQuiz_20220430_FoxSkills%22&FORM=HPQUIZ",
            "wp": false,
            "hsh": "51c22e967562ff3525550883fa32b005",
            "drk": 1,
            "top": 1,
            "bot": 1,
            "hs": []
        },
        {
            "startdate": "20220429",
            "fullstartdate": "202204291830",
            "enddate": "20220430",
            "url": "/th?id=OHR.NorthBeachJazz_EN-IN8038272160_1920x1080.jpg&rf=LaDigue_1920x1080.jpg&pid=hp",
            "urlbase": "/th?id=OHR.NorthBeachJazz_EN-IN8038272160",
            "copyright": "The North Beach Jazz Mural created by Bay Area artist Bill Weber in San Francisco (© Kosso/Getty Images)",
            "copyrightlink": "https://www.bing.com/search?q=International+Jazz+Day&FORM=hpcapt&filters=HpDate%3a%2220220429_1830%22",
            "title": "Get in tune with International Jazz Day",
            "quiz": "/search?q=Bing+homepage+quiz&filters=WQOskey:%22HPQuiz_20220429_NorthBeachJazz%22&FORM=HPQUIZ",
            "wp": false,
            "hsh": "9c2d2623d35282948386d5c8bfc95438",
            "drk": 1,
            "top": 1,
            "bot": 1,
            "hs": []
        },
        {
            "startdate": "20220428",
            "fullstartdate": "202204281830",
            "enddate": "20220429",
            "url": "/th?id=OHR.RedwoodSprout_EN-IN7226441353_1920x1080.jpg&rf=LaDigue_1920x1080.jpg&pid=hp",
            "urlbase": "/th?id=OHR.RedwoodSprout_EN-IN7226441353",
            "copyright": "A young giant sequoia sprouting out of an old log in Prairie Creek Redwoods State Park, California (© Hutch Axilrod/Getty Images)",
            "copyrightlink": "https://www.bing.com/search?q=arbor+day+holiday&FORM=hpcapt&filters=HpDate%3a%2220220428_1830%22",
            "title": "The sprout with amazing potential",
            "quiz": "/search?q=Bing+homepage+quiz&filters=WQOskey:%22HPQuiz_20220428_RedwoodSprout%22&FORM=HPQUIZ",
            "wp": true,
            "hsh": "7789681858a7ad204b77feba761cdf8e",
            "drk": 1,
            "top": 1,
            "bot": 1,
            "hs": []
        },
        {
            "startdate": "20220427",
            "fullstartdate": "202204271830",
            "enddate": "20220428",
            "url": "/th?id=OHR.ElephantJimCorbett_EN-IN1246798617_1920x1080.jpg&rf=LaDigue_1920x1080.jpg&pid=hp",
            "urlbase": "/th?id=OHR.ElephantJimCorbett_EN-IN1246798617",
            "copyright": "Elephant herd walking the plains in Jim Corbett National Park in India (© Shutterstock)",
            "copyrightlink": "https://www.bing.com/search?q=asian+elephant&form=hpcapt&filters=HpDate%3a%2220220427_1830%22",
            "title": "True masters of the jungle",
            "quiz": "/search?q=Bing+homepage+quiz&filters=WQOskey:%22HPQuiz_20220427_ElephantJimCorbett%22&FORM=HPQUIZ",
            "wp": true,
            "hsh": "ceeb5b4512ed1a0e8db1300012e7ca23",
            "drk": 1,
            "top": 1,
            "bot": 1,
            "hs": []
        }
    ]
}